…
``` r
accel_plot(ukb_accel[1:1000,])
```

<img src="man/figures/README-unnamed-chunk-4-1.png" width="100%" />

### spectral_signature()

This function is used to get the Spectral Signature of Accelerometry
Data. The spectral signature is calculated by taking the modulus of the
Fourier coefficients of the signal.

``` r
ukb_accel[1:1000,] |> spectral_signature(take_log = T)
#> # A tibble: 500 × 4
#>        X     Y     Z   freq
#>    <dbl> <dbl> <dbl>  <dbl>
#>  1  4.84  5.37  6.87 0.0993
#>  2  4.97  5.67  4.02 0.0995
#>  3  4.82  4.16  3.51 0.0997
#>  4  3.75  4.01  2.20 0.0999
#>  5  2.91  4.66  3.60 0.100 
#>  6  3.82  3.19  3.89 0.100 
#>  7  3.07  4.10  3.54 0.100 
#>  8  3.28  4.28  3.35 0.101 
#>  9  3.80  2.78  2.97 0.101 
#> 10  3.85  3.24  3.14 0.101 
#> # … with 490 more rows
```
…
